# Fdb version 3
["bibtex template"] 1452872988 "template.aux" "template.bbl" "template" 1452872991
  "/usr/share/texmf-dist/bibtex/bst/biblatex/biblatex.bst" 1447534124 60786 a2b1210a8445a64c07263176de7a05fa ""
  "bibliography.bib" 1452872914 4406 c2fe14393998b55a25799bc6622ad50f ""
  "template-blx.bib" 1452872990 306 30b072e7a0fc7e671238d26d62bded95 ""
  "template.aux" 1452872991 10714 b1160a52674d892c4d9ece5a9bba7494 ""
  "template.bcf" 0 -1 0 ""
  (generated)
  "template.bbl"
["pdflatex"] 1452872990 "template.tex" "template.pdf" "template" 1452872991
  "./template.out" 1452872991 1144 a6a9d883c11c65d4a0b295a77d956c33 ""
  "./unlthesis-files/Schools/unl/fct/Images/cover-msc-std.pdf" 1452165690 112161 ad3382672c6789e89f462346439cd8a0 ""
  "/usr/share/texmf-dist/fonts/enc/dvips/base/8r.enc" 1447534200 4850 80dc9bab7f31fb78a000ccfed0e27cab ""
  "/usr/share/texmf-dist/fonts/enc/dvips/kpfonts/kpfonts-expert.enc" 1447534338 2639 b7bbeb66c016cde6fdcad9263fe54a4a ""
  "/usr/share/texmf-dist/fonts/map/fontname/texfonts.map" 1447534192 3287 e6b82fe08f5336d4d5ebc73fb1152e87 ""
  "/usr/share/texmf-dist/fonts/tfm/adobe/helvetic/phvb8r.tfm" 1447534190 4484 b828043cbd581d289d955903c1339981 ""
  "/usr/share/texmf-dist/fonts/tfm/adobe/helvetic/phvb8t.tfm" 1447534190 6628 34c39492c0adc454c1c199922bba8363 ""
  "/usr/share/texmf-dist/fonts/tfm/adobe/helvetic/phvr8r.tfm" 1447534190 4712 9ef4d7d106579d4b136e1529e1a4533c ""
  "/usr/share/texmf-dist/fonts/tfm/adobe/helvetic/phvr8t.tfm" 1447534190 7040 b2bd27e2bfe6f6948cbc3239cae7444f ""
  "/usr/share/texmf-dist/fonts/tfm/jknappen/ec/ecrm1095.tfm" 1447534190 3584 929cdff2b7a8c11bd4d49fd68cb0ae70 ""
  "/usr/share/texmf-dist/fonts/tfm/jknappen/ec/ectt1000.tfm" 1447534190 1536 06717a2b50de47d4087ac0e6cd759455 ""
  "/usr/share/texmf-dist/fonts/tfm/public/cm/cmr10.tfm" 1447534189 1296 45809c5a464d5f32c8f98ba97c1bb47f ""
  "/usr/share/texmf-dist/fonts/tfm/public/cm/cmr9.tfm" 1447534189 1292 6b21b9c2c7bebb38aa2273f7ca0fb3af ""
  "/usr/share/texmf-dist/fonts/tfm/public/kpfonts/jkpbn8r.tfm" 1447534345 1704 3498d78dbc645488e6991702d2fcd9f1 ""
  "/usr/share/texmf-dist/fonts/tfm/public/kpfonts/jkpbn8t.tfm" 1447534345 20836 dd27a1f6f898752c993b50a7bfb0552d ""
  "/usr/share/texmf-dist/fonts/tfm/public/kpfonts/jkpbne.tfm" 1447534345 1476 e4f5cafc64b9daf0d44d4aebfd40a855 ""
  "/usr/share/texmf-dist/fonts/tfm/public/kpfonts/jkpbsc8r.tfm" 1447534345 1704 a67c58eddc950ae18171832db411cb84 ""
  "/usr/share/texmf-dist/fonts/tfm/public/kpfonts/jkpbsc8t.tfm" 1447534345 23644 7a0ad62de17bf20f0f1d4f86e5428ee3 ""
  "/usr/share/texmf-dist/fonts/tfm/public/kpfonts/jkpbsce.tfm" 1447534345 1412 da7448517d2b94fb81c1f79863aff531 ""
  "/usr/share/texmf-dist/fonts/tfm/public/kpfonts/jkpex.tfm" 1447534345 1420 916081528bdeafb19bca325e7b18bd9e ""
  "/usr/share/texmf-dist/fonts/tfm/public/kpfonts/jkpexa.tfm" 1447534345 1296 db149dfb5b2371c6e3d282e2f4424eaf ""
  "/usr/share/texmf-dist/fonts/tfm/public/kpfonts/jkpmi.tfm" 1447534345 2392 1ee08a0b7a0370405809b47b71fb21cc ""
  "/usr/share/texmf-dist/fonts/tfm/public/kpfonts/jkpmia.tfm" 1447534345 1612 9a32a530da503a405d14b95b5156c033 ""
  "/usr/share/texmf-dist/fonts/tfm/public/kpfonts/jkpmit8r.tfm" 1447534345 1780 c364372d22986d8083e32d38d690691b ""
  "/usr/share/texmf-dist/fonts/tfm/public/kpfonts/jkpmit8t.tfm" 1447534345 18444 2fbc76159962b49b745500156ff33ad7 ""
  "/usr/share/texmf-dist/fonts/tfm/public/kpfonts/jkpmite.tfm" 1447534345 1572 a7ac5688fb5d5ec69856c07a91827f5c ""
  "/usr/share/texmf-dist/fonts/tfm/public/kpfonts/jkpmn7c.tfm" 1447534345 1608 eaf5c74678ee658cd5cea7db9df5d785 ""
  "/usr/share/texmf-dist/fonts/tfm/public/kpfonts/jkpmn7t.tfm" 1447534345 4124 99bbc9c09bed751cdc245db4fb9644ff ""
  "/usr/share/texmf-dist/fonts/tfm/public/kpfonts/jkpmn8r.tfm" 1447534345 1728 01ec3b6a814daf3492bb99c6bf6dcf8d ""
  "/usr/share/texmf-dist/fonts/tfm/public/kpfonts/jkpmn8t.tfm" 1447534345 20312 ce66b8298b0360321828a3215c911900 ""
  "/usr/share/texmf-dist/fonts/tfm/public/kpfonts/jkpmnc.tfm" 1447534345 1484 8fa52b7682bd3391d7cabf3ff035d442 ""
  "/usr/share/texmf-dist/fonts/tfm/public/kpfonts/jkpmne.tfm" 1447534345 1492 3cce7d7b67660bfd355425290695c6a6 ""
  "/usr/share/texmf-dist/fonts/tfm/public/kpfonts/jkpmsc8r.tfm" 1447534345 1704 6f2239b6d45e3a0a0ec92fd8286c5d81 ""
  "/usr/share/texmf-dist/fonts/tfm/public/kpfonts/jkpmsc8t.tfm" 1447534345 23328 ee8d91ea430dfad92f9683bb219b502f ""
  "/usr/share/texmf-dist/fonts/tfm/public/kpfonts/jkpmsce.tfm" 1447534345 1428 b55a244ab96dffd28471fb415b3ad4f0 ""
  "/usr/share/texmf-dist/fonts/tfm/public/kpfonts/jkpsy.tfm" 1447534345 1324 37a02294e3708c32520057020841c334 ""
  "/usr/share/texmf-dist/fonts/tfm/public/kpfonts/jkpsya.tfm" 1447534345 904 5199e8f7fac33693a2cdafbe614fdb21 ""
  "/usr/share/texmf-dist/fonts/tfm/public/kpfonts/jkpsyb.tfm" 1447534345 1104 e59328e827916b7ec83ae1a5950a6a4d ""
  "/usr/share/texmf-dist/fonts/tfm/public/kpfonts/jkpsyc.tfm" 1447534345 1028 a2825e2c40d04ba8c0af3998464d86e1 ""
  "/usr/share/texmf-dist/fonts/tfm/public/kpfonts/jkpttmn8r.tfm" 1447534345 1260 fd61ad79456aa267078b3d91d3fd9a50 ""
  "/usr/share/texmf-dist/fonts/tfm/public/kpfonts/jkpttmn8t.tfm" 1447534345 1376 b8eef6d7513735f5005cc6ef1ea992f6 ""
  "/usr/share/texmf-dist/fonts/tfm/public/kpfonts/jkpttmne.tfm" 1447534345 1208 64d9ff6faba311f1b1b268db95c6ee67 ""
  "/usr/share/texmf-dist/fonts/type1/public/kpfonts/jkpbn8a.pfb" 1447534354 32613 389be7e28026f4a9ed02e6bc2426509b ""
  "/usr/share/texmf-dist/fonts/type1/public/kpfonts/jkpbsc8a.pfb" 1447534354 34310 1172e73f913bfccdf21d62f9e36829dd ""
  "/usr/share/texmf-dist/fonts/type1/public/kpfonts/jkpmi.pfb" 1447534354 29813 d05f8d6ea0d8afa920af22dddafc33f2 ""
  "/usr/share/texmf-dist/fonts/type1/public/kpfonts/jkpmit8a.pfb" 1447534354 37692 ff65f49f493de879aca846e1811bfa1f ""
  "/usr/share/texmf-dist/fonts/type1/public/kpfonts/jkpmn8a.pfb" 1447534354 35294 e88bb6b7bdd82f594dee041ddea9423c ""
  "/usr/share/texmf-dist/fonts/type1/public/kpfonts/jkpmne.pfb" 1447534354 18013 a3754f8df0b4dd3a76b5353fabb31650 ""
  "/usr/share/texmf-dist/fonts/type1/public/kpfonts/jkpmsc8a.pfb" 1447534354 35145 c0d7a82f6be81407f39e1a6922b63148 ""
  "/usr/share/texmf-dist/fonts/type1/public/kpfonts/jkpsy.pfb" 1447534354 25860 1e4d17fc7bf1d0b47e9b47e6099f1971 ""
  "/usr/share/texmf-dist/fonts/type1/public/kpfonts/jkpttmn8a.pfb" 1447534354 29290 5f42ab27c55cdf1c35d41e42b8861898 ""
  "/usr/share/texmf-dist/fonts/type1/urw/helvetic/uhvb8a.pfb" 1447534194 35941 f27169cc74234d5bd5e4cca5abafaabb ""
  "/usr/share/texmf-dist/fonts/type1/urw/helvetic/uhvr8a.pfb" 1447534194 44648 23115b2a545ebfe2c526c3ca99db8b95 ""
  "/usr/share/texmf-dist/fonts/vf/adobe/helvetic/phvb8t.vf" 1447534191 2340 0efed6a948c3c37d870e4e7ddb85c7c3 ""
  "/usr/share/texmf-dist/fonts/vf/adobe/helvetic/phvr8t.vf" 1447534191 2344 44ff28c9ef2fc97180cd884f900fee71 ""
  "/usr/share/texmf-dist/fonts/vf/public/kpfonts/jkpbn8t.vf" 1447534357 1800 bde6e91770b65baf214fcc34f4229391 ""
  "/usr/share/texmf-dist/fonts/vf/public/kpfonts/jkpbsc8t.vf" 1447534357 1772 ac24da4a9b20c1dc80e2fecfab43b945 ""
  "/usr/share/texmf-dist/fonts/vf/public/kpfonts/jkpmit8t.vf" 1447534357 1804 fe65055d8ef06903d74a3f6f34728152 ""
  "/usr/share/texmf-dist/fonts/vf/public/kpfonts/jkpmn7c.vf" 1447534357 948 0ed5db617d744e3cca3bcade1853e77a ""
  "/usr/share/texmf-dist/fonts/vf/public/kpfonts/jkpmn7t.vf" 1447534357 984 276aff85044bc68260a465c2ce58c070 ""
  "/usr/share/texmf-dist/fonts/vf/public/kpfonts/jkpmn8t.vf" 1447534357 1800 3acf620f6c07a0390a9d216a40a331bc ""
  "/usr/share/texmf-dist/fonts/vf/public/kpfonts/jkpmsc8t.vf" 1447534357 1772 acb8dfa9e17d627269c9dee434ed6547 ""
  "/usr/share/texmf-dist/fonts/vf/public/kpfonts/jkpttmn8t.vf" 1447534357 1812 b50baa4195e7ff2d92f7befecf594007 ""
  "/usr/share/texmf-dist/tex/context/base/supp-pdf.mkii" 1447534200 71627 94eb9990bed73c364d7f53f960cc8c5b ""
  "/usr/share/texmf-dist/tex/generic/babel-english/english.ldf" 1447534196 6963 2e0cb3d93aa64508bdb0db58ae900d97 ""
  "/usr/share/texmf-dist/tex/generic/babel-portuges/portuges.ldf" 1447534196 6605 2bd2937f1ce929b4a1367cc2d320364e ""
  "/usr/share/texmf-dist/tex/generic/babel/babel.def" 1447534196 49726 da63d4c1647e9dde3c60a8f9b90b7b5f ""
  "/usr/share/texmf-dist/tex/generic/babel/babel.sty" 1447534196 13264 2b51cdb296ce82707774a2cf74030854 ""
  "/usr/share/texmf-dist/tex/generic/ifxetex/ifxetex.sty" 1447534197 1458 43ab4710dc82f3edeabecd0d099626b2 ""
  "/usr/share/texmf-dist/tex/generic/oberdiek/atbegshi.sty" 1447534196 24460 92f559a71aac869021852c227c704b38 ""
  "/usr/share/texmf-dist/tex/generic/oberdiek/etexcmds.sty" 1447534196 7612 c47308d923ec19888707b0f1792b326a ""
  "/usr/share/texmf-dist/tex/generic/oberdiek/gettitlestring.sty" 1447534196 8237 52810bdb4db2270e717422560a104aea ""
  "/usr/share/texmf-dist/tex/generic/oberdiek/hobsub-generic.sty" 1447534196 189108 8b3553a56c83ff61acecb36b75d817e2 ""
  "/usr/share/texmf-dist/tex/generic/oberdiek/hobsub-hyperref.sty" 1447534196 70752 45fa392800e07da61fa13446ad46b34d ""
  "/usr/share/texmf-dist/tex/generic/oberdiek/ifluatex.sty" 1447534196 7324 11d14f318d865f420e692d4e6c9c18c3 ""
  "/usr/share/texmf-dist/tex/generic/oberdiek/ifpdf.sty" 1447534196 7140 ece2cc23d9f20e1f53975ac167f42d3e ""
  "/usr/share/texmf-dist/tex/generic/oberdiek/infwarerr.sty" 1447534196 8253 3bdedc8409aa5d290a2339be6f09af03 ""
  "/usr/share/texmf-dist/tex/generic/oberdiek/ltxcmds.sty" 1447534197 18425 775b341047ce304520cc7c11ca41392e ""
  "/usr/share/texmf-dist/tex/generic/pgf/basiclayer/pgfcore.code.tex" 1447534197 1006 b103be0bfc8c1682ff1fa9760697a329 ""
  "/usr/share/texmf-dist/tex/generic/pgf/basiclayer/pgfcorearrows.code.tex" 1447534197 43226 167a99346bfe2676e3efcdde2d81fe45 ""
  "/usr/share/texmf-dist/tex/generic/pgf/basiclayer/pgfcoreexternal.code.tex" 1447534197 19302 4f089dc590e71f7331e6d5b5ea85273b ""
  "/usr/share/texmf-dist/tex/generic/pgf/basiclayer/pgfcoregraphicstate.code.tex" 1447534197 6068 edae1e768a7d8d8f0f00e953d2b0153e ""
  "/usr/share/texmf-dist/tex/generic/pgf/basiclayer/pgfcoreimage.code.tex" 1447534197 7041 a891ad72049e17c4e366c40ca37b0ccb ""
  "/usr/share/texmf-dist/tex/generic/pgf/basiclayer/pgfcorelayers.code.tex" 1447534197 4625 40c07e9f6f2f7c674704b3f2055560ce ""
  "/usr/share/texmf-dist/tex/generic/pgf/basiclayer/pgfcoreobjects.code.tex" 1447534197 2631 7eefa6cdbefd8d4e2bad7262cf1094cd ""
  "/usr/share/texmf-dist/tex/generic/pgf/basiclayer/pgfcorepathconstruct.code.tex" 1447534197 43477 81143b33d9ebafdeead07ede13372427 ""
  "/usr/share/texmf-dist/tex/generic/pgf/basiclayer/pgfcorepathprocessing.code.tex" 1447534197 17436 8d99d4113be311daf23deff86991ee7d ""
  "/usr/share/texmf-dist/tex/generic/pgf/basiclayer/pgfcorepathusage.code.tex" 1447534197 20772 c57e34db4aa7b1da013169d04b743eac ""
  "/usr/share/texmf-dist/tex/generic/pgf/basiclayer/pgfcorepatterns.code.tex" 1447534197 9641 711f0edc22c180a5caf168b6e8970057 ""
  "/usr/share/texmf-dist/tex/generic/pgf/basiclayer/pgfcorepoints.code.tex" 1447534197 34516 658a71478d21df554bce9d9cd436203a ""
  "/usr/share/texmf-dist/tex/generic/pgf/basiclayer/pgfcorequick.code.tex" 1447534197 3052 e5672c657232fd63b0a9853b0746297c ""
  "/usr/share/texmf-dist/tex/generic/pgf/basiclayer/pgfcorescopes.code.tex" 1447534197 16669 4ec6e40088fc6de6334b443fe2dc59f0 ""
  "/usr/share/texmf-dist/tex/generic/pgf/basiclayer/pgfcoreshade.code.tex" 1447534197 21541 4cd19f8ff7dd74d5aa7d803a6397af84 ""
  "/usr/share/texmf-dist/tex/generic/pgf/basiclayer/pgfcoretransformations.code.tex" 1447534197 19998 d77fef95c7369827753d17fd11be19c4 ""
  "/usr/share/texmf-dist/tex/generic/pgf/basiclayer/pgfcoretransparency.code.tex" 1447534197 8943 2e2495b057f8f0035b5568394d489963 ""
  "/usr/share/texmf-dist/tex/generic/pgf/frontendlayer/tikz/libraries/tikzlibrarypositioning.code.tex" 1447534197 4034 0a8cd33cf30d262ec971380666acb2d0 ""
  "/usr/share/texmf-dist/tex/generic/pgf/frontendlayer/tikz/libraries/tikzlibrarytopaths.code.tex" 1447534197 11599 d694704a88e2f9007c996d3a6a4d629c ""
  "/usr/share/texmf-dist/tex/generic/pgf/frontendlayer/tikz/tikz.code.tex" 1447534197 176652 1c2926908e2b356d454795c35385d580 ""
  "/usr/share/texmf-dist/tex/generic/pgf/libraries/pgflibraryplothandlers.code.tex" 1447534197 32969 dbcfd5a7de6a0f7255c333ef60287d59 ""
  "/usr/share/texmf-dist/tex/generic/pgf/math/pgfmath.code.tex" 1447534197 454 9e9e7c99f4da4f41698be21eaef4938e ""
  "/usr/share/texmf-dist/tex/generic/pgf/math/pgfmathcalc.code.tex" 1447534197 13416 940ea6971d7a65dc440d3479939c66ae ""
  "/usr/share/texmf-dist/tex/generic/pgf/math/pgfmathfloat.code.tex" 1447534197 94097 62ac62cda46eb715560dc27f9ed6e8b1 ""
  "/usr/share/texmf-dist/tex/generic/pgf/math/pgfmathfunctions.base.code.tex" 1447534197 9375 5adc70f722abd29fc250d59e0694b548 ""
  "/usr/share/texmf-dist/tex/generic/pgf/math/pgfmathfunctions.basic.code.tex" 1447534197 22069 7c21c42b15718ce922f36235be360490 ""
  "/usr/share/texmf-dist/tex/generic/pgf/math/pgfmathfunctions.code.tex" 1447534197 8210 a7be5b52ef3d2c087b7dc3d52898b67e ""
  "/usr/share/texmf-dist/tex/generic/pgf/math/pgfmathfunctions.comparison.code.tex" 1447534197 3534 c7f28fbac13616513e513efe93b8569b ""
  "/usr/share/texmf-dist/tex/generic/pgf/math/pgfmathfunctions.integerarithmetics.code.tex" 1447534197 3167 7c9394e79aac27db96a92f9b2792b858 ""
  "/usr/share/texmf-dist/tex/generic/pgf/math/pgfmathfunctions.misc.code.tex" 1447534197 9289 261407875b9dbb0194691c3eb893610f ""
  "/usr/share/texmf-dist/tex/generic/pgf/math/pgfmathfunctions.random.code.tex" 1447534197 7078 946ddf4a7e57219b6afdbad98eb6731b ""
  "/usr/share/texmf-dist/tex/generic/pgf/math/pgfmathfunctions.round.code.tex" 1447534197 2688 139c6abc86761a6190c2f4bef5d752be ""
  "/usr/share/texmf-dist/tex/generic/pgf/math/pgfmathfunctions.trigonometric.code.tex" 1447534197 92284 dcf023dbaa84e6c50e11c2f79fe8cfa6 ""
  "/usr/share/texmf-dist/tex/generic/pgf/math/pgfmathparser.code.tex" 1447534197 35430 046e15fbb65e74d8f0e7945f99741fdb ""
  "/usr/share/texmf-dist/tex/generic/pgf/math/pgfmathutil.code.tex" 1447534197 7099 f44d505bae6c7c2b933cdd63441db4b9 ""
  "/usr/share/texmf-dist/tex/generic/pgf/modules/pgfmodulematrix.code.tex" 1447534197 20934 2328bd2e04520e1ab077ac4ee13b8935 ""
  "/usr/share/texmf-dist/tex/generic/pgf/modules/pgfmoduleplot.code.tex" 1447534197 16203 83cbe1220e389eeee283a6168f9a567b ""
  "/usr/share/texmf-dist/tex/generic/pgf/modules/pgfmoduleshapes.code.tex" 1447534197 42906 d54376d96df1a2ae2d33fb722236d8e9 ""
  "/usr/share/texmf-dist/tex/generic/pgf/systemlayer/pgf.cfg" 1447534197 978 15af626ebd3d4d790aac19170dac04f2 ""
  "/usr/share/texmf-dist/tex/generic/pgf/systemlayer/pgfsys-common-pdf.def" 1447534197 5437 d91f93ed61ecdc57e119849b2d784a0b ""
  "/usr/share/texmf-dist/tex/generic/pgf/systemlayer/pgfsys-pdftex.def" 1447534197 13507 809d848d9262638e1b1705a68a73c566 ""
  "/usr/share/texmf-dist/tex/generic/pgf/systemlayer/pgfsys.code.tex" 1447534197 35113 2ccc50c1c9573e4bac9230d030f9c67c ""
  "/usr/share/texmf-dist/tex/generic/pgf/systemlayer/pgfsysprotocol.code.tex" 1447534197 1983 b5994ebbcee17f1ba3d29bb1bd696fcf ""
  "/usr/share/texmf-dist/tex/generic/pgf/systemlayer/pgfsyssoftpath.code.tex" 1447534197 7881 d459d6057e13d10ce7a227ae44b7295e ""
  "/usr/share/texmf-dist/tex/generic/pgf/utilities/pgffor.code.tex" 1447534197 22211 d696ef78c12269178882d218b2cf191d ""
  "/usr/share/texmf-dist/tex/generic/pgf/utilities/pgfkeys.code.tex" 1447534197 36194 e194ef4e0b396b531a3891feb4b1cc22 ""
  "/usr/share/texmf-dist/tex/generic/pgf/utilities/pgfkeysfiltered.code.tex" 1447534197 33377 af391d6ad1bfcbe2278e191f48e43ba8 ""
  "/usr/share/texmf-dist/tex/generic/pgf/utilities/pgfrcs.code.tex" 1447534197 2536 a3b0529d815a2759ba157b56610a6377 ""
  "/usr/share/texmf-dist/tex/generic/pgf/utilities/pgfutil-common-lists.tex" 1447534197 6833 114eda2cf1d348e0e7e477a1a4dc1941 ""
  "/usr/share/texmf-dist/tex/generic/pgf/utilities/pgfutil-common.tex" 1447534197 16501 ab0135765e27b6b8dae047831fe84818 ""
  "/usr/share/texmf-dist/tex/generic/pgf/utilities/pgfutil-latex.def" 1447534197 5544 294baac9629ba59f675b1f2027ad7136 ""
  "/usr/share/texmf-dist/tex/generic/tracklang/tracklang.tex" 1447535069 58123 4380b9015d985db6c5405d6c95710842 ""
  "/usr/share/texmf-dist/tex/generic/xkeyval/keyval.tex" 1447534197 2725 fc34ef3ccb37ba15a640e8fca6190bca ""
  "/usr/share/texmf-dist/tex/generic/xkeyval/xkeyval.tex" 1447534197 19231 26434a5656c684f5ffb1f26f98006baa ""
  "/usr/share/texmf-dist/tex/generic/xkeyval/xkvutils.tex" 1447534197 7677 6f5ce7c1124cad7ec57d05b2562bd8fe ""
  "/usr/share/texmf-dist/tex/generic/xstring/xstring.sty" 1447536545 144 0ca8d67b000b795a4d9ec000e0fd09c7 ""
  "/usr/share/texmf-dist/tex/generic/xstring/xstring.tex" 1447536545 54373 fd4487ae3e45d4074bc89aea1d2b6807 ""
  "/usr/share/texmf-dist/tex/latex/amsmath/amsbsy.sty" 1447534194 2412 2d98314dc5be38f455f8890deeb2d091 ""
  "/usr/share/texmf-dist/tex/latex/amsmath/amsgen.sty" 1447534194 4357 ad30ad08920902fc9b38caf35a3b0496 ""
  "/usr/share/texmf-dist/tex/latex/amsmath/amsmath.sty" 1447534194 79178 b2e326c351e876df0e5e23df2e02441b ""
  "/usr/share/texmf-dist/tex/latex/amsmath/amsopn.sty" 1447534194 4082 502152465aedb8f6a3c4b0b7c0fa8ae5 ""
  "/usr/share/texmf-dist/tex/latex/amsmath/amstext.sty" 1447534194 2637 846ebe982d3549c7ede7ce135456f54a ""
  "/usr/share/texmf-dist/tex/latex/base/fontenc.sty" 1447534195 4572 f29f75cfae3acaf4667f1979db655af9 ""
  "/usr/share/texmf-dist/tex/latex/base/ifthen.sty" 1447534195 5159 bb529586d444e85eb00179221b678119 ""
  "/usr/share/texmf-dist/tex/latex/base/inputenc.sty" 1447534195 5619 3f48adceb9004b3fefe24c2d2df7d98e ""
  "/usr/share/texmf-dist/tex/latex/base/omsenc.dfu" 1447534195 2005 7c2d714aaabaaea61849505248223f63 ""
  "/usr/share/texmf-dist/tex/latex/base/ot1enc.dfu" 1447534195 3182 b53a533f1102cf7a2bd05abd8c36f5cc ""
  "/usr/share/texmf-dist/tex/latex/base/t1enc.def" 1447534195 9327 bf6addf718ff386725227c5b52941e7e ""
  "/usr/share/texmf-dist/tex/latex/base/t1enc.dfu" 1447534195 8042 3f4a6e08c01d3f356d68475717820651 ""
  "/usr/share/texmf-dist/tex/latex/base/textcomp.sty" 1447534195 16155 258f35a63ef332879c6629fd0fc875da ""
  "/usr/share/texmf-dist/tex/latex/base/ts1cmr.fd" 1447534195 2217 88eb40cf4b1efa71ba8daf8030a0113f ""
  "/usr/share/texmf-dist/tex/latex/base/ts1enc.def" 1447534195 7767 7f8f29a2f77fdabc077bc233a27c01d3 ""
  "/usr/share/texmf-dist/tex/latex/base/ts1enc.dfu" 1447534195 4920 c7240e6dae01c363f8a2ed6a4354bb72 ""
  "/usr/share/texmf-dist/tex/latex/base/utf8.def" 1447534195 7785 611d77e97e4abe4e551c78110cc11963 ""
  "/usr/share/texmf-dist/tex/latex/biblatex/bbx/numeric.bbx" 1447534125 1643 b8b8541575a038864971a52949c77681 ""
  "/usr/share/texmf-dist/tex/latex/biblatex/bbx/standard.bbx" 1447534125 23803 b57149c53e2fb2325acf2b6e50c43bf7 ""
  "/usr/share/texmf-dist/tex/latex/biblatex/biblatex.cfg" 1447534125 69 249fa6df04d948e51b6d5c67bea30c42 ""
  "/usr/share/texmf-dist/tex/latex/biblatex/biblatex.def" 1447534125 92515 48235fbde22764d917980d7bb048d7d9 ""
  "/usr/share/texmf-dist/tex/latex/biblatex/biblatex.sty" 1447534125 3391 6b15f2cf6802f7549028e9ba75fe436b ""
  "/usr/share/texmf-dist/tex/latex/biblatex/biblatex1.sty" 1447534125 299692 5b4e87eb4ac5f441782a62270abd35d0 ""
  "/usr/share/texmf-dist/tex/latex/biblatex/blx-compat.def" 1447534125 4333 ef24122c2a3b5e1349da4bafaa79b787 ""
  "/usr/share/texmf-dist/tex/latex/biblatex/cbx/numeric.cbx" 1447534125 4386 6a7ab103e336f0719186c2df3484a1ad ""
  "/usr/share/texmf-dist/tex/latex/biblatex/lbx/english.lbx" 1447534125 31406 b134ca0a9c994125c620158738376041 ""
  "/usr/share/texmf-dist/tex/latex/biblatex/lbx/portuguese.lbx" 1447534125 25866 4eed9bb24ba23488820da76f69e1aeff ""
  "/usr/share/texmf-dist/tex/latex/datatool/datatool-base.sty" 1447536546 74854 f4d822a10ba33ddcea40b7f7d768d87e ""
  "/usr/share/texmf-dist/tex/latex/datatool/datatool-fp.sty" 1447536546 3944 48bd879433b45bf4996570f56d68efa7 ""
  "/usr/share/texmf-dist/tex/latex/eso-pic/eso-pic.sty" 1447534195 11954 3abdeb9fbc956bcd048295dd83dd5e7c ""
  "/usr/share/texmf-dist/tex/latex/etoolbox/etoolbox.sty" 1447536546 41547 7860e623236f5f726a4099bbb7dd89fb ""
  "/usr/share/texmf-dist/tex/latex/fp/defpattern.sty" 1447534195 1081 6a8d78d0e6b2d89334f92fd122c1da99 ""
  "/usr/share/texmf-dist/tex/latex/fp/fp-addons.sty" 1447534195 1275 fe903646b72b3e877914d78f2db9ddda ""
  "/usr/share/texmf-dist/tex/latex/fp/fp-basic.sty" 1447534195 29695 b6366b50463dfb367cf560419d0cea8d ""
  "/usr/share/texmf-dist/tex/latex/fp/fp-eqn.sty" 1447534195 11336 afed7aa5dbc4bf246950282b95e522c2 ""
  "/usr/share/texmf-dist/tex/latex/fp/fp-eval.sty" 1447534195 6220 eeeffd00d1235e73c380c6dc9f30ac43 ""
  "/usr/share/texmf-dist/tex/latex/fp/fp-exp.sty" 1447534195 16964 7ba2d4a3882e46a0429106267976ad21 ""
  "/usr/share/texmf-dist/tex/latex/fp/fp-pas.sty" 1447534195 3006 6fd5da0dc83ba1d19525f1fb08dca7df ""
  "/usr/share/texmf-dist/tex/latex/fp/fp-random.sty" 1447534195 3702 6e54ac63212901d59e6ea2a32b0a7689 ""
  "/usr/share/texmf-dist/tex/latex/fp/fp-snap.sty" 1447534195 6519 c1e5d3c6aed32ba782f756d79578d87b ""
  "/usr/share/texmf-dist/tex/latex/fp/fp-trigo.sty" 1447534195 28969 342a2de338e342de95d2551557e50f06 ""
  "/usr/share/texmf-dist/tex/latex/fp/fp-upn.sty" 1447534195 7154 78a835a719e27a484e63f1f98ba4df11 ""
  "/usr/share/texmf-dist/tex/latex/fp/fp.sty" 1447534195 983 d84df22b060ce125f89a32c403dcab31 ""
  "/usr/share/texmf-dist/tex/latex/glossaries-english/glossaries-english.ldf" 1447536546 3656 cfd7063dcf1f89f4d3681b9a8bd5be4d ""
  "/usr/share/texmf-dist/tex/latex/glossaries-portuges/glossaries-portuges-utf8.ldf" 1447536546 3117 29f6c828da993c09c6effcee40b24b91 ""
  "/usr/share/texmf-dist/tex/latex/glossaries-portuges/glossaries-portuges.ldf" 1447536546 3046 fb9b1247e1b7da212665e1f35191d08c ""
  "/usr/share/texmf-dist/tex/latex/glossaries/base/glossaries-compatible-307.sty" 1447536547 18500 d508aba9aaedb6b4734977e6a752163d ""
  "/usr/share/texmf-dist/tex/latex/glossaries/base/glossaries.sty" 1447536547 224601 42ac02efa88a42d6e5ad6ba50f83892a ""
  "/usr/share/texmf-dist/tex/latex/glossaries/styles/glossary-hypernav.sty" 1447536547 5342 9317634d5d437182b8994a80f04a39f4 ""
  "/usr/share/texmf-dist/tex/latex/glossaries/styles/glossary-list.sty" 1447536547 6156 8d7418e889d4b2b467c982eb757c8c8e ""
  "/usr/share/texmf-dist/tex/latex/glossaries/styles/glossary-long.sty" 1447536547 8695 70e942f056a36b4373e9086826f0b7ae ""
  "/usr/share/texmf-dist/tex/latex/glossaries/styles/glossary-super.sty" 1447536547 9723 31aff4e768bf8029d23502d1e8532381 ""
  "/usr/share/texmf-dist/tex/latex/glossaries/styles/glossary-tree.sty" 1447536547 10944 024a85072703e23bcb4ada4bc091bde3 ""
  "/usr/share/texmf-dist/tex/latex/graphics/graphics.sty" 1447534195 14285 20d80486c4ae98139889d8789596c967 ""
  "/usr/share/texmf-dist/tex/latex/graphics/graphicx.sty" 1447534195 8125 557ab9f1bfa80d369fb45a914aa8a3b4 ""
  "/usr/share/texmf-dist/tex/latex/graphics/trig.sty" 1447534195 3439 44bd4a1da7f27787173f2e99116b0a7f ""
  "/usr/share/texmf-dist/tex/latex/hyperref/hpdftex.def" 1447534195 51837 247bd8424b3835ef78c236dc1e0b4aef ""
  "/usr/share/texmf-dist/tex/latex/hyperref/hyperref.sty" 1447534195 231792 5fc9dc7dd667e773a766ecc63bba7f4b ""
  "/usr/share/texmf-dist/tex/latex/hyperref/nameref.sty" 1447534195 12847 25b617d63258c4f72870c883493a3cf8 ""
  "/usr/share/texmf-dist/tex/latex/hyperref/pd1enc.def" 1447534195 14005 155ac8fad2e5dd7c2cdd130fabd96633 ""
  "/usr/share/texmf-dist/tex/latex/ifetex/ifetex.sty" 1447535069 1571 45d3cd316bdf45071542b57b1784c273 ""
  "/usr/share/texmf-dist/tex/latex/ifmtarg/ifmtarg.sty" 1447536546 438 4c0f57b7cba6e6ca9226b32da26f82e9 ""
  "/usr/share/texmf-dist/tex/latex/kpfonts/kpfonts.sty" 1447534363 72676 856b52ab339cd8bb2dd28d43225e99b5 ""
  "/usr/share/texmf-dist/tex/latex/kpfonts/omljkp.fd" 1447534363 445 26f1bace35a25cdb94155b5fbf5a67d4 ""
  "/usr/share/texmf-dist/tex/latex/kpfonts/omsjkp.fd" 1447534363 1616 7fef3748796a6ffce8f2ffd1956830e2 ""
  "/usr/share/texmf-dist/tex/latex/kpfonts/omxjkp.fd" 1447534363 306 dd10f36111fcddf8bc82442f71d26f9f ""
  "/usr/share/texmf-dist/tex/latex/kpfonts/ot1jkp.fd" 1447534363 1133 632cc5712ce26c7333f51ef610f28017 ""
  "/usr/share/texmf-dist/tex/latex/kpfonts/t1jkp.fd" 1447534363 1114 fcabaa7c9fcd58f3af9f59dcfa83fa03 ""
  "/usr/share/texmf-dist/tex/latex/kpfonts/t1jkptt.fd" 1447534363 805 3ce6b9dbcd36fe6edc54ac981aba536b ""
  "/usr/share/texmf-dist/tex/latex/kpfonts/ts1jkp.fd" 1447534363 1133 6c0682665b7117a9615fe4b5862862e7 ""
  "/usr/share/texmf-dist/tex/latex/kpfonts/ujkpexa.fd" 1447534363 320 b222867dc9ceaccb99f5c780072d4c87 ""
  "/usr/share/texmf-dist/tex/latex/kpfonts/ujkpmia.fd" 1447534363 326 2782e82a7edb148e7d8a2ffed10be5e5 ""
  "/usr/share/texmf-dist/tex/latex/kpfonts/ujkpsya.fd" 1447534363 320 c2a3ea0a540207603e7e962d91e93c40 ""
  "/usr/share/texmf-dist/tex/latex/kpfonts/ujkpsyb.fd" 1447534363 320 d2a1fadaa7dc48281828f735d4a584c9 ""
  "/usr/share/texmf-dist/tex/latex/kpfonts/ujkpsyc.fd" 1447534363 320 8b7ec5275c6b1e5ed11702a65ef13eb9 ""
  "/usr/share/texmf-dist/tex/latex/latexconfig/color.cfg" 1447534195 802 7b8c8d72c24d795ed7720e4dfd29bff3 ""
  "/usr/share/texmf-dist/tex/latex/latexconfig/epstopdf-sys.cfg" 1447534195 678 4792914a8f45be57bb98413425e4c7af ""
  "/usr/share/texmf-dist/tex/latex/latexconfig/graphics.cfg" 1447534195 3563 d35e897cae3b8c6848f6677b73370b54 ""
  "/usr/share/texmf-dist/tex/latex/latexconfig/hyperref.cfg" 1447534195 235 6031e5765137be07eed51a510b2b8fb7 ""
  "/usr/share/texmf-dist/tex/latex/lipsum/lipsum.sty" 1447536546 103491 f3a8d28ba533bcdb24167b15de14ff22 ""
  "/usr/share/texmf-dist/tex/latex/listings/listings.cfg" 1447534195 1827 d72ad54409ca5c1068a1939c63441bd2 ""
  "/usr/share/texmf-dist/tex/latex/listings/listings.sty" 1447534195 80336 ff90c926c3d7bfdaa3d80ca57123b0bb ""
  "/usr/share/texmf-dist/tex/latex/listings/lstlang1.sty" 1447534195 93445 48e5be20ba2d0a2ca5c4ce7e292a4bbc ""
  "/usr/share/texmf-dist/tex/latex/listings/lstmisc.sty" 1447534195 77028 c3eb00afb55a32bc13ca8da7f5234377 ""
  "/usr/share/texmf-dist/tex/latex/logreq/logreq.def" 1447534125 1620 fb1c32b818f2058eca187e5c41dfae77 ""
  "/usr/share/texmf-dist/tex/latex/logreq/logreq.sty" 1447534125 6187 b27afc771af565d3a9ff1ca7d16d0d46 ""
  "/usr/share/texmf-dist/tex/latex/mathalfa/mathalfa.sty" 1447536546 24401 57afbddbd2ec29d1af93b7c45170c6e5 ""
  "/usr/share/texmf-dist/tex/latex/memoir/mem11.clo" 1447534195 4077 d2f2dc59ef20eee6dc05107f4440091b ""
  "/usr/share/texmf-dist/tex/latex/memoir/memhfixc.sty" 1447534195 11285 dbd4440be337fece041abdf4e6e17516 ""
  "/usr/share/texmf-dist/tex/latex/memoir/memoir.cls" 1447534195 403230 6bf76732fdcfa6fe50f636e34851879a ""
  "/usr/share/texmf-dist/tex/latex/memoir/mempatch.sty" 1447534195 1325 61d651ec19190481219253f142256d58 ""
  "/usr/share/texmf-dist/tex/latex/mfirstuc/mfirstuc.sty" 1447536546 4907 b709af75ec37aa5079d3a7ef5da9a3b3 ""
  "/usr/share/texmf-dist/tex/latex/microtype/microtype-pdftex.def" 1447534195 48788 102de9fe36ddc0fb46fd6734b1f3e8fb ""
  "/usr/share/texmf-dist/tex/latex/microtype/microtype.cfg" 1447534195 23086 f25ab3218b2c6f172ac44dbf381961e1 ""
  "/usr/share/texmf-dist/tex/latex/microtype/microtype.sty" 1447534195 68045 fe140a1fc105016163d67aadd9efe194 ""
  "/usr/share/texmf-dist/tex/latex/ms/everyshi.sty" 1447534195 3878 6aa7c08ff2621006e0603349e40a30a8 ""
  "/usr/share/texmf-dist/tex/latex/oberdiek/auxhook.sty" 1447534195 3834 707ef09f31d7d2ea47ba89974755dfe0 ""
  "/usr/share/texmf-dist/tex/latex/oberdiek/epstopdf-base.sty" 1447534195 12029 04d7fdf76e0464c23b5aa3a727952d7c ""
  "/usr/share/texmf-dist/tex/latex/oberdiek/grfext.sty" 1447534195 7075 bd0c34fbf1ae8fd1debd2a554e41b2d5 ""
  "/usr/share/texmf-dist/tex/latex/oberdiek/kvoptions-patch.sty" 1447534195 14447 2f727ca968cf8776a9a7ed09af5c6b91 ""
  "/usr/share/texmf-dist/tex/latex/oberdiek/kvoptions.sty" 1447534195 22417 c74ff4af6a1aa2b65d1924020edbbe11 ""
  "/usr/share/texmf-dist/tex/latex/oberdiek/rerunfilecheck.sty" 1447534195 9581 1158efc648bc09d5064db5703c882159 ""
  "/usr/share/texmf-dist/tex/latex/paralist/paralist.sty" 1447536547 14747 154e41a6d5d746a2b1f2dcbe973ac29b ""
  "/usr/share/texmf-dist/tex/latex/pdftex-def/pdftex.def" 1447534195 55368 3c8a0d99822330f2dfabc0dfb09ce897 ""
  "/usr/share/texmf-dist/tex/latex/pgf/basiclayer/pgf.sty" 1447534195 1197 8a80cdde14696a9198f1793a55dcf332 ""
  "/usr/share/texmf-dist/tex/latex/pgf/basiclayer/pgfcore.sty" 1447534195 410 5bf12ea7330e5f12c445332a4fe9a263 ""
  "/usr/share/texmf-dist/tex/latex/pgf/compatibility/pgfcomp-version-0-65.sty" 1447534195 21115 facf03b7dbe5ea2f5f1dce1ac84b5d05 ""
  "/usr/share/texmf-dist/tex/latex/pgf/compatibility/pgfcomp-version-1-18.sty" 1447534195 1091 d9163d29def82ee90370c8a63667742c ""
  "/usr/share/texmf-dist/tex/latex/pgf/frontendlayer/tikz.sty" 1447534195 339 592cf35cba3d400082b8a9a5d0199d70 ""
  "/usr/share/texmf-dist/tex/latex/pgf/math/pgfmath.sty" 1447534195 306 0796eafca5e159e6ec2167a6d22d81b1 ""
  "/usr/share/texmf-dist/tex/latex/pgf/systemlayer/pgfsys.sty" 1447534195 443 0b2e781830192df35c0fd357cf13e26e ""
  "/usr/share/texmf-dist/tex/latex/pgf/utilities/pgffor.sty" 1447534195 348 8927fde343487e003b01a4c2ca34073b ""
  "/usr/share/texmf-dist/tex/latex/pgf/utilities/pgfkeys.sty" 1447534195 274 4cad6e665cc93ac2ac979039a94fa1e1 ""
  "/usr/share/texmf-dist/tex/latex/pgf/utilities/pgfrcs.sty" 1447534195 325 2bcd023400636339210573e2b3ee298b ""
  "/usr/share/texmf-dist/tex/latex/psnfss/t1phv.fd" 1447534196 1488 9a55ac1cde6b4798a7f56844bb75a553 ""
  "/usr/share/texmf-dist/tex/latex/soul/soul.sty" 1447536547 23636 c37eef0334dd2011d112d2040c11328f ""
  "/usr/share/texmf-dist/tex/latex/substr/substr.sty" 1447536547 5724 d3505925e87b345f11a5f17d58550dea ""
  "/usr/share/texmf-dist/tex/latex/supertabular/supertabular.sty" 1447536547 14283 563cabe54cdab0459534c65c66672d04 ""
  "/usr/share/texmf-dist/tex/latex/textcase/textcase.sty" 1447534196 2022 79a2c3efd954daff1698214872b6ca46 ""
  "/usr/share/texmf-dist/tex/latex/todonotes/todonotes.sty" 1447536547 17377 c779de8f9409b6a593160a62fecceac6 ""
  "/usr/share/texmf-dist/tex/latex/tools/calc.sty" 1447534196 10214 78c09985255ed93018b1db2c4e2f6deb ""
  "/usr/share/texmf-dist/tex/latex/tools/longtable.sty" 1447534196 12083 b47235b9e530708f74984b3dda65e60d ""
  "/usr/share/texmf-dist/tex/latex/tracklang/tracklang.sty" 1447535069 7804 4655fe5adbeaf6c5bd56b34c4222ac31 ""
  "/usr/share/texmf-dist/tex/latex/url/url.sty" 1447534196 12796 8edb7d69a20b857904dd0ea757c14ec9 ""
  "/usr/share/texmf-dist/tex/latex/xcolor/xcolor.sty" 1447534196 55224 a43bab84e0ac5e6efcaf9a98bde73a94 ""
  "/usr/share/texmf-dist/tex/latex/xfor/xfor.sty" 1447536547 2689 44855b72da58344b1c1d9b3087bce6ca ""
  "/usr/share/texmf-dist/tex/latex/xkeyval/xkeyval.sty" 1447534196 4962 9c1069474ff71dbc47d5006555e352d3 ""
  "/usr/share/texmf-dist/tex/plain/ifetex/ifetex.tex" 1447535069 1166 4b66ad073c6073cb1bde651c18b7dbb2 ""
  "/usr/share/texmf-dist/web2c/texmf.cnf" 1447534201 31669 df537245012f3e5f05bdc55644b7a3df ""
  "/var/lib/texmf/fonts/map/pdftex/updmap/pdftex.map" 1452522029 1670706 6bf12df2fb83bd07d8e7780e324ede00 ""
  "/var/lib/texmf/web2c/pdftex/pdflatex.fmt" 1448202041 7214064 d2e56771252f12d26cf7e302f624b89c ""
  "Chapters/abstract-en.tex" 1452165690 1320 751c840205762498f26a5f793d16f3f3 ""
  "Chapters/abstract-pt.tex" 1452165690 1404 5e65b42ee0ab7d1c898e76a9f2a430d5 ""
  "Chapters/acknowledgements.tex" 1452165690 508 bf6fb58d29dedbcc0f122418542de46c ""
  "Chapters/acronyms.tex" 1452165690 405 353b65ff6dd644ac56c9b1c446414a29 ""
  "Chapters/glossary.tex" 1452165690 557 232ceae6c66e84dda7dbf2b3b9fdd118 ""
  "Chapters/introduction.tex" 1452868158 299 0602d130ff70606af2d5ac8fcec4e957 ""
  "Chapters/proposedWork.tex" 1452868338 151 773d28bea47fad48bb84905e21220ad2 ""
  "Chapters/relatedWork.tex" 1452872921 7125 64a0341a91fbb0fdc4a69fdb19a3ece8 ""
  "template-blx.bib" 1452872990 306 30b072e7a0fc7e671238d26d62bded95 ""
  "template.aux" 1452872991 10714 b1160a52674d892c4d9ece5a9bba7494 ""
  "template.bbl" 1452872988 1836 0c724b5970b92223ed0bd35a2333a816 "bibtex template"
  "template.lof" 1452872991 1016 25d5518ba3937a9cf1877e304a0c5e75 ""
  "template.lol" 1452872991 0 d41d8cd98f00b204e9800998ecf8427e ""
  "template.lot" 1452872991 1016 25d5518ba3937a9cf1877e304a0c5e75 ""
  "template.out" 1452872991 1144 a6a9d883c11c65d4a0b295a77d956c33 ""
  "template.run.xml" 1452872991 2530 5b4dc8f2f74e758451d51a9a5b899918 ""
  "template.tex" 1452872928 10797 68103d19f585b1f5cf3d6ac9214d8a78 ""
  "template.toc" 1452872991 3576 3f66121039af64639c0b162309794fc1 ""
  "unlthesis-files/ChapStyles/elegant.clo" 1452165690 1430 f4efcb9d27460b5763753f91e6195521 ""
  "unlthesis-files/FontStyles/kpfonts.clo" 1452165690 325 b289511ce89992754c49d882928a7bcf ""
  "unlthesis-files/Schools/unl/fct/Images/cover-msc-std.pdf" 1452165690 112161 ad3382672c6789e89f462346439cd8a0 ""
  "unlthesis-files/Schools/unl/fct/defaults.clo" 1452165690 4236 33e93100ceda96529015862256d37d90 ""
  "unlthesis-files/Strings/strings-en.clo" 1452165690 4850 61e1035db6b0971b1a9482b2e55eb2c9 ""
  "unlthesis-files/Strings/strings-pt.clo" 1452165690 4564 6450fea12870d671bc6be905224dd0af ""
  "unlthesis-files/fix-babel.clo" 1452165690 1058 5f8e2029119fdbaab494f7f1a83e4387 ""
  "unlthesis-files/lang-conf.clo" 1452165690 857 2e68031b314ae9f79e146567d22e7fc6 ""
  "unlthesis-files/options.clo" 1452165690 6247 1483bfbdfea58e65d1659e7a009dabc0 ""
  "unlthesis-files/packages.clo" 1452165690 3694 6103dea37433280890b0a1fc3a687a3a ""
  "unlthesis.cls" 1452165690 27417 797224cb547c92f06685e96161467989 ""
  "xifthen.sty" 1452521239 5689 1bfa68243e89a54479e7d0580773c57e ""
  (generated)
  "template.aux"
  "template.lof"
  "template.lot"
  "template.run.xml"
  "template.lol"
  "template.log"
  "template.pdf"
  "template.out"
  "template.toc"
  "template-blx.bib"
